Technical Presentation of DataExplorer
…
Drop Features

Data explorer also has a drop features method that allows us to drop a column of a data set if we deem it unnecessary.

Using the bike data set, we can drop the “cnt” column.

## Original Data Set
bikeshare_day

# A tibble: 731 × 16
   instant dteday     season    yr  mnth holiday weekday working…¹ weath…²  temp
     <dbl> <date>      <dbl> <dbl> <dbl>   <dbl>   <dbl>     <dbl>   <dbl> <dbl>
 1       1 2011-01-01      1     0     1       0       6         0       2 0.344
 2       2 2011-01-02      1     0     1       0       0         0       2 0.363
 3       3 2011-01-03      1     0     1       0       1         1       1 0.196
 4       4 2011-01-04      1     0     1       0       2         1       1 0.2  
 5       5 2011-01-05      1     0     1       0       3         1       1 0.227
 6       6 2011-01-06      1     0     1       0       4         1       1 0.204
 7       7 2011-01-07      1     0     1       0       5         1       2 0.197
 8       8 2011-01-08      1     0     1       0       6         0       2 0.165
 9       9 2011-01-09      1     0     1       0       0         0       1 0.138
10      10 2011-01-10      1     0     1       0       1         1       1 0.151
# … with 721 more rows, 6 more variables: atemp <dbl>, hum <dbl>,
#   windspeed <dbl>, casual <dbl>, registered <dbl>, cnt <dbl>, and abbreviated
#   variable names ¹​workingday, ²​weathersit

## After dropping "cnt" column 
bike_no_cnt <- drop_columns(bikeshare_day, c("cnt"))
bike_no_cnt

# A tibble: 731 × 15
   instant dteday     season    yr  mnth holiday weekday working…¹ weath…²  temp
     <dbl> <date>      <dbl> <dbl> <dbl>   <dbl>   <dbl>     <dbl>   <dbl> <dbl>
 1       1 2011-01-01      1     0     1       0       6         0       2 0.344
 2       2 2011-01-02      1     0     1       0       0         0       2 0.363
 3       3 2011-01-03      1     0     1       0       1         1       1 0.196
 4       4 2011-01-04      1     0     1       0       2         1       1 0.2  
 5       5 2011-01-05      1     0     1       0       3         1       1 0.227
 6       6 2011-01-06      1     0     1       0       4         1       1 0.204
 7       7 2011-01-07      1     0     1       0       5         1       2 0.197
 8       8 2011-01-08      1     0     1       0       6         0       2 0.165
 9       9 2011-01-09      1     0     1       0       0         0       1 0.138
10      10 2011-01-10      1     0     1       0       1         1       1 0.151
# … with 721 more rows, 5 more variables: atemp <dbl>, hum <dbl>,
#   windspeed <dbl>, casual <dbl>, registered <dbl>, and abbreviated variable
#   names ¹​workingday, ²​weathersit
…
It’s inputs are

data: the dataframe

ind: the column name or position

what: call a function or apply a method to the column

Let’s take the log of all the values in the column “casual” of the original bike data set.

new_bike <- update_columns(bikeshare_day, c("casual"), log)
new_bike

# A tibble: 731 × 16
   instant dteday     season    yr  mnth holiday weekday working…¹ weath…²  temp
     <dbl> <date>      <dbl> <dbl> <dbl>   <dbl>   <dbl>     <dbl>   <dbl> <dbl>
 1       1 2011-01-01      1     0     1       0       6         0       2 0.344
 2       2 2011-01-02      1     0     1       0       0         0       2 0.363
 3       3 2011-01-03      1     0     1       0       1         1       1 0.196
 4       4 2011-01-04      1     0     1       0       2         1       1 0.2  
 5       5 2011-01-05      1     0     1       0       3         1       1 0.227
 6       6 2011-01-06      1     0     1       0       4         1       1 0.204
 7       7 2011-01-07      1     0     1       0       5         1       2 0.197
 8       8 2011-01-08      1     0     1       0       6         0       2 0.165
 9       9 2011-01-09      1     0     1       0       0         0       1 0.138
10      10 2011-01-10      1     0     1       0       1         1       1 0.151
# … with 721 more rows, 6 more variables: atemp <dbl>, hum <dbl>,
#   windspeed <dbl>, casual <dbl>, registered <dbl>, cnt <dbl>, and abbreviated
#   variable names ¹​workingday, ²​weathersit
…
